<?xml version="1.0" encoding="utf-8"?>
<!-- Generator: Adobe Illustrator 24.0.3, SVG Export Plug-In . SVG Version: 6.00 Build 0)  -->
<svg version="1.1" id="np_calendar-tasks-manager_878575_000000"
	 xmlns="http://www.w3.org/2000/svg" xmlns:xlink="http://www.w3.org/1999/xlink" x="0px" y="0px" viewBox="0 0 36.8 36.8"
	 style="enable-background:new 0 0 36.8 36.8;" xml:space="preserve">
<g>
	<path d="M32.9,3.1h-2.3V1.5c0,0,0-0.1,0-0.1c0-0.8-0.7-1.5-1.6-1.5c-0.8,0-1.5,0.7-1.5,1.6v1.5H9.2V1.5
		c0,0,0-0.1,0-0.1c0-0.8-0.7-1.5-1.6-1.5C6.8,0,6.1,0.7,6.1,1.5v1.5H3.8C1.7,3.1,0,4.8,0,6.9v3.5c0,0.1,0,0.2,0,0.4
		c0,0.1,0,0.2,0,0.3v21.9c0,2.1,1.7,3.8,3.8,3.8h29.1c2.1,0,3.8-1.7,3.8-3.8v-26C36.8,4.8,35.1,3.1,32.9,3.1z M3.8,6.1l2.3,0
		c0,0.8,0.7,1.5,1.5,1.5c0.8,0,1.5-0.7,1.5-1.5l18.4,0c0,0,0,0,0,0c0,0.8,0.7,1.5,1.5,1.5c0,0,0,0,0,0c0.8,0,1.5-0.7,1.5-1.5l2.3,0
		c0.4,0,0.8,0.3,0.8,0.8v2.3H3.1V6.9C3.1,6.5,3.4,6.1,3.8,6.1z M32.9,33.7H3.8c-0.4,0-0.8-0.3-0.8-0.8V12.3h30.6v20.7
		C33.7,33.4,33.4,33.7,32.9,33.7z" fill="currentColor"/>
	<path d="M9.2,27.5c-0.8,0-1.5,0.7-1.5,1.6c0,0.8,0.7,1.5,1.5,1.5c0.8,0,1.5-0.6,1.6-1.5c0,0,0-0.1,0-0.1
		C10.7,28.2,10,27.5,9.2,27.5z" fill="currentColor"/>
	<path d="M9.2,21.5c-0.8,0-1.5,0.6-1.6,1.5c0,0.8,0.7,1.5,1.5,1.5c0.8,0,1.5-0.6,1.6-1.5C10.7,22.2,10.1,21.5,9.2,21.5z
		" fill="currentColor" />
	<path d="M13.8,27.5c-0.8,0-1.5,0.7-1.5,1.6c0,0.8,0.7,1.5,1.5,1.5c0.8,0,1.6-0.6,1.6-1.5c0,0,0-0.1,0-0.1
		C15.3,28.2,14.6,27.5,13.8,27.5z" fill="currentColor" />
	<path d="M13.8,21.5c-0.8,0-1.6,0.6-1.6,1.5c0,0.8,0.7,1.5,1.5,1.5c0.8,0,1.6-0.6,1.6-1.5
		C15.3,22.2,14.6,21.5,13.8,21.5z" fill="currentColor"/>
	<path d="M13.8,15.4c-0.8,0-1.6,0.6-1.6,1.5c0,0,0,0.1,0,0.1c0,0.8,0.7,1.5,1.6,1.5c0.8,0,1.5-0.7,1.5-1.6
		C15.3,16,14.6,15.4,13.8,15.4z" fill="currentColor"/>
	<path d="M22.9,27.5c-0.8,0-1.5,0.7-1.5,1.6c0,0.8,0.7,1.5,1.5,1.5c0.8,0,1.6-0.6,1.6-1.5c0,0,0-0.1,0-0.1
		C24.5,28.2,23.8,27.5,22.9,27.5z" fill="currentColor"/>
	<path d="M23,21.5c-0.8,0-1.6,0.6-1.6,1.5c0,0.8,0.7,1.5,1.5,1.5c0.8,0,1.6-0.6,1.6-1.5C24.5,22.2,23.8,21.5,23,21.5z"
		  fill="currentColor"/>
	<path d="M23,15.4c-0.8,0-1.6,0.6-1.6,1.5c0,0,0,0.1,0,0.1c0,0.8,0.7,1.5,1.6,1.5c0.8,0,1.5-0.7,1.5-1.6
		C24.5,16,23.8,15.4,23,15.4z" fill="currentColor"/>
	<path d="M27.6,21.5c-0.8,0-1.5,0.6-1.6,1.5c0,0.8,0.7,1.5,1.5,1.5c0.8,0,1.5-0.6,1.6-1.5
		C29.1,22.2,28.4,21.5,27.6,21.5z" fill="currentColor"/>
	<path d="M27.6,15.4c-0.8,0-1.5,0.6-1.6,1.5c0,0,0,0.1,0,0.1c0,0.8,0.7,1.5,1.6,1.5c0.8,0,1.5-0.7,1.5-1.6
		C29.1,16,28.4,15.4,27.6,15.4z" fill="currentColor"/>
	<path d="M18.4,27.5c-0.8,0-1.5,0.7-1.5,1.6c0,0.8,0.7,1.5,1.5,1.5c0.8,0,1.6-0.6,1.6-1.5c0,0,0-0.1,0-0.1
		C19.9,28.2,19.2,27.5,18.4,27.5z" fill="currentColor"/>
	<path d="M18.4,21.5c-0.8,0-1.6,0.6-1.6,1.5c0,0.8,0.7,1.5,1.5,1.5c0.8,0,1.6-0.6,1.6-1.5
		C19.9,22.2,19.2,21.5,18.4,21.5z" fill="currentColor"/>
	<path d="M18.4,15.4c-0.8,0-1.6,0.6-1.6,1.5c0,0,0,0.1,0,0.1c0,0.8,0.7,1.5,1.6,1.5c0.8,0,1.5-0.7,1.5-1.6
		C19.9,16,19.2,15.4,18.4,15.4z" fill="currentColor"/>
</g>
</svg>
