<?xml version="1.0" encoding="utf-8"?>
<!-- Generator: Adobe Illustrator 24.0.3, SVG Export Plug-In . SVG Version: 6.00 Build 0)  -->
<svg version="1.1" id="Layer_1" xmlns="http://www.w3.org/2000/svg" xmlns:xlink="http://www.w3.org/1999/xlink" x="0px" y="0px"
	 viewBox="0 0 38.7 38.2" style="enable-background:new 0 0 38.7 38.2;" xml:space="preserve">
<style type="text/css">
	.st0{fill:transparent;}
	.st1{fill:#0E324B;}
</style>
<g id="Group_516" transform="translate(-546.552 -1920.609)">
	<g id="Group_466" transform="translate(517.976 1892.718)">
		<g id="Group_388" transform="translate(47.77 27.891)">
			<path id="Path_92" class="st0" d="M1.9,14.2c0.6,1.4,1.7,2.5,3,3.2c2.1,0.7,4.4,0.2,6-1.3l6.6-6.6c0.5-0.5,0.5-1.2,0-1.6
				c-0.5-0.5-1.2-0.5-1.7-0.1C15.3,8.3,10,13.6,9.6,14c-0.3,0.4-0.9,0.5-1.3,0.2c0,0,0,0-0.1,0c-0.4-0.4-0.3-1,0.2-1.4l6.1-6.1
				c0.4-0.5,0.4-1.2-0.1-1.7c-0.4-0.4-1.1-0.5-1.6-0.2L6.6,11c-0.4,0.4-1,0.6-1.4,0.2s-0.3-1,0.2-1.4l6.2-6.2
				C12,3,11.9,2.3,11.4,1.9c-0.4-0.5-1.2-0.5-1.6,0c0,0,0,0,0,0L3.2,8.5C1.7,10,1.2,12.2,1.9,14.2z"/>
			<path id="Path_93" class="st1" d="M18.5,6.8C18,6.3,17.3,6,16.5,6c-0.1,0-0.1,0-0.2,0V5.8c0-0.8-0.3-1.5-0.8-2
				C15,3.3,14.2,3,13.4,3h-0.1V2.8c0-0.8-0.3-1.5-0.8-2C12,0.3,11.3,0,10.6,0l0,0C9.9,0,9.2,0.3,8.7,0.8L2.1,7.4
				c-1.6,1.6-2.4,4-2,6.2l5.7,5.7c0.3,0.1,0.7,0.1,1,0.1c1.9,0,3.8-0.7,5.2-2.1l6.6-6.6C19.6,9.6,19.6,7.9,18.5,6.8z M17.5,9.6
				l-6.6,6.6c-0.1,0.1-0.3,0.3-0.4,0.4c-0.1,0.1-0.2,0.2-0.3,0.2c-0.1,0.1-0.2,0.1-0.3,0.2c-0.4,0.2-0.8,0.4-1.2,0.6
				c-0.1,0-0.2,0.1-0.3,0.1c0,0-0.1,0-0.1,0c-0.1,0-0.2,0-0.4,0.1h0c-0.4,0.1-0.7,0.1-1.1,0.1c-0.7,0-1.3-0.1-1.9-0.4
				c-1.3-0.7-2.4-1.8-3-3.2c-0.4-1.3-0.4-2.7,0.1-3.9C2.3,9.6,2.7,9,3.2,8.5l6.6-6.6c0.1,0,0.1-0.1,0.2-0.2c0.1,0,0.1-0.1,0.2-0.1
				c0.1,0,0.2,0,0.2-0.1c0.1,0,0.1,0,0.2,0h0c0.3,0,0.6,0.1,0.8,0.3c0.1,0.1,0.1,0.1,0.2,0.2c0.1,0.1,0.2,0.3,0.2,0.5
				c0.1,0.3,0,0.7-0.2,0.9L5.4,9.7c-0.4,0.4-0.6,1-0.2,1.4c0.2,0.2,0.4,0.2,0.6,0.2c0.1,0,0.1,0,0.2,0c0,0,0,0,0.1,0c0,0,0,0,0,0
				c0.1,0,0.1,0,0.2-0.1c0.1-0.1,0.3-0.2,0.4-0.3l6.2-6.2c0.1-0.1,0.3-0.2,0.5-0.2h0.1c0.4,0,0.7,0.1,1,0.4c0.5,0.5,0.5,1.2,0.1,1.7
				l-6.1,6.1c-0.4,0.4-0.6,1-0.2,1.4c0,0,0,0,0.1,0c0.1,0.1,0.3,0.2,0.5,0.2c0,0,0,0,0.1,0c0.3,0,0.6-0.2,0.8-0.4
				c0.4-0.4,5.7-5.7,6.1-6.1c0.2-0.2,0.5-0.3,0.8-0.3c0.3,0,0.7,0.1,0.9,0.4C17.9,8.4,17.9,9.1,17.5,9.6z"/>
		</g>
		<g id="Group_389" transform="translate(28.576 48.689)">
			<path id="Path_94" class="st0" d="M15.7,4.4c-1.1-0.9-2.1-1.8-3.1-2.8L2.1,12c-0.8,0.9-0.8,2.2,0,3.1c0.9,1.1,2.7,0.1,3.2-0.4
				S15.7,4.4,15.7,4.4z"/>
			<path id="Path_95" class="st1" d="M14.6,3.1l-2.8-2.8h0c-0.1,0-0.2,0.1-0.2,0.2L1,10.9c-1.3,1.4-1.4,3.7-0.1,5.2
				c0.6,0.7,1.4,1.1,2.3,1.1c1.2-0.1,2.4-0.5,3.2-1.4C7,15.2,16.8,5.5,16.8,5.5c0.2-0.2,0.3-0.4,0.4-0.6C16.2,4.4,15.4,3.8,14.6,3.1
				z M15.5,4.6c0,0-0.1,0.1-0.2,0.2c-0.1,0.1-0.2,0.1-0.2,0.2c-0.2,0.2-0.4,0.4-0.6,0.6c-0.1,0.1-0.2,0.2-0.3,0.3
				C14.1,6,14,6.1,13.8,6.3c-0.1,0.1-0.3,0.2-0.4,0.4c-0.1,0.1-0.3,0.3-0.4,0.4c-0.1,0.1-0.3,0.3-0.4,0.4c-0.1,0.1-0.3,0.3-0.5,0.4
				c-0.1,0.1-0.3,0.3-0.5,0.5c-0.6,0.6-1.3,1.2-1.9,1.9l-0.5,0.5C9,11,8.7,11.3,8.5,11.6l-1.6,1.6c-0.1,0.1-0.2,0.2-0.3,0.3
				c-0.1,0.1-0.2,0.2-0.3,0.3L6,14.1c-0.1,0.1-0.2,0.2-0.2,0.2l-0.2,0.2c0,0.1-0.1,0.1-0.1,0.1l-0.1,0.1c0,0,0,0,0,0
				c-0.1,0.1-0.3,0.3-0.5,0.4c-0.1,0.1-0.2,0.1-0.3,0.2h0c-0.2,0.1-0.3,0.2-0.5,0.2c-0.3,0.1-0.6,0.2-0.9,0.2h0c0,0-0.1,0-0.1,0
				c-0.1,0-0.2,0-0.3,0c0,0,0,0,0,0s0,0,0,0c0,0,0,0,0,0c-0.1,0-0.2-0.1-0.2-0.1c0,0,0,0,0,0c0,0-0.1,0-0.1-0.1c0,0-0.1,0-0.1-0.1
				c0,0-0.1-0.1-0.1-0.1h0c-0.8-0.9-0.8-2.2,0-3.1h0L12.6,1.5l0,0c0.2,0.2,0.5,0.5,0.7,0.7c0.7,0.7,1.5,1.4,2.3,2.1c0,0,0,0,0,0
				L15.5,4.6z"/>
		</g>
		<g id="Group_390" transform="translate(30.616 29.775)">
			<path class="st1" d="M35.5,29.9c0,0-6.1-6.1-12.6-12.6l-5.7-5.7C12.6,7,8.6,3,7.4,1.8C6.5,0.8,5.2,0.1,3.8,0C2.3,0,1,1,0.5,2.5
				c-1.1,2.6-0.5,7,2.4,9.9l6.9,6.9h0l2.8,2.8c0.8,0.7,1.6,1.3,2.6,1.7c1.2,0.6,2.4,0.9,3.7,1c0.3,0,0.7,0,1-0.1l10.4,10.4
				c0.8,0.8,1.8,1.2,2.9,1.2c1,0,1.9-0.4,2.5-1.2C37.1,33.7,37,31.3,35.5,29.9z M34.6,34.1C34.6,34.1,34.6,34.2,34.6,34.1
				c-0.4,0.5-0.9,0.7-1.4,0.7c-0.7,0-1.3-0.3-1.8-0.8L20.3,22.9c-0.4,0.2-0.9,0.3-1.4,0.3c-2-0.2-3.8-1-5.2-2.3L4,11.2
				C0.5,7.7,1,1.5,3.8,1.5c1,0.1,1.9,0.6,2.5,1.4c3.2,3.2,28,28.1,28,28.1C35.3,31.8,35.4,33.2,34.6,34.1z"/>
		</g>
	</g>
</g>
</svg>
