<svg id="Gruppe_508" data-name="Gruppe 508" xmlns="http://www.w3.org/2000/svg" width="54.831" height="54.831" viewBox="0 0 54.831 54.831">
  <ellipse id="Ellipse_8" data-name="Ellipse 8" cx="27.416" cy="27.416" rx="27.416" ry="27.416" transform="translate(0)" fill="#0e314b"/>
  <g id="Gruppe_504" data-name="Gruppe 504" transform="translate(7.438 11.309)">
    <path id="Pfad_148" data-name="Pfad 148" d="M402.38,169.542l-4.334-.151-1.2,9.138,4.208.147.187-.843-3.047-.106.467-3.474,2.763.1.092-.812-2.732-.1.424-3.13,3.046.106Z" transform="translate(-382.041 -154.446)" fill="#fff"/>
    <path id="Pfad_149" data-name="Pfad 149" d="M432.9,170.61l-1.257-.044-1.293,9.135,1.255.044.653-4.283,3.36.117-.59,4.286,1.319.046,1.231-9.137-1.256-.044-.581,4.035-3.455-.12Z" transform="translate(-398.428 -155.02)" fill="#fff"/>
    <path id="Pfad_150" data-name="Pfad 150" d="M412.34,171.023l.405-.773s-3.777-2-4.785,1.951c-.4,1.567,1.3,2.362,1.3,2.362s2.54.92,1.484,2.534c-1.229,1.875-3.288.546-3.288.546l-.5.863a5.541,5.541,0,0,0,3.274.491,3.127,3.127,0,0,0,2.04-3.2c-.469-2.165-3.11-1.88-3.052-3.534a1.67,1.67,0,0,1,1.693-1.669,3.754,3.754,0,0,1,1.431.428" transform="translate(-386.986 -154.619)" fill="#fff"/>
    <path id="Pfad_151" data-name="Pfad 151" d="M425.209,170.715l-.381.741a3.059,3.059,0,0,0-1.327-.423c-.691-.024-2.2.488-2.731,3.133s.332,3.742.453,3.872a1.739,1.739,0,0,0,1.552.578c.926-.116,1.039-.321,1.039-.321l.264.828a5.2,5.2,0,0,1-1.879.417,3.191,3.191,0,0,1-2.917-3.5,7.036,7.036,0,0,1,2-5.169,3.389,3.389,0,0,1,2.2-.719,4.942,4.942,0,0,1,1.72.563" transform="translate(-393.015 -154.817)" fill="#fff"/>
    <path id="Pfad_152" data-name="Pfad 152" d="M367.865,190.815A10.717,10.717,0,0,1,374.3,188.4c4.761.166,8.285,4.224,12.483,4.37a9.225,9.225,0,0,0,5.548-2.1,9.839,9.839,0,0,1-7.55,3.451c-4.712-.164-7.541-4.515-11.422-4.65a10.045,10.045,0,0,0-5.5,1.348" transform="translate(-367.865 -163.742)" fill="#fff"/>
    <path id="Pfad_153" data-name="Pfad 153" d="M381.958,163.95l-1.131-.039,2.671-18.9-1.345-2.312.415-2.289s.053-.324.6-.273c.417.038,2.3.08,2.763.1s.585.02.579.188-.166,1.168-.166,1.168l1.884.065.121-1.043a.545.545,0,0,1,.513-.317c.376.013,2.282.067,2.889.1s.581.187.581.187l-.252,1.206,1.842.064.12-1a.569.569,0,0,1,.6-.4c.291.036,2.764.1,2.764.1s.545-.054.491.312c-.025.164-.377,2.374-.377,2.374l-1.915,2.073-.806,6.258-.837-.029.856-6.509L396.732,143l.222-1.586-1.8-.063-.12,1.044s-.177.245-.344.239l-3.307-.115s-.418-.057-.409-.308a7.149,7.149,0,0,1,.2-.957l-1.884-.066-.075.962s-.04.271-.429.278c-.209,0-3.307-.115-3.307-.115s-.25-.051-.243-.26.2-1.041.2-1.041l-1.927-.067-.216,1.416,1.3,2.227Z" transform="translate(-374.205 -140.135)" fill="#fff"/>
    <path id="Pfad_154" data-name="Pfad 154" d="M396.277,150.15l.06-.5a.7.7,0,0,0-.245-.218c-.124-.047-1.675-.058-1.675-.058s-.337.051-.429.257-.427,2.647-.427,2.647.066.464.485.479a.563.563,0,0,0,.6-.441c.048-.166.23-1.794.23-1.794s.056-.376.348-.366,1.049,0,1.049,0" transform="translate(-380.435 -144.653)" fill="#fff"/>
  </g>
</svg>
