<svg id="Group_88" data-name="Group 88" xmlns="http://www.w3.org/2000/svg" width="19.555" height="19.584" viewBox="0 0 19.555 19.584">
  <path id="Path_896" data-name="Path 896" d="M15.808,38.4a1.926,1.926,0,0,0-1.4-.641A1.992,1.992,0,0,0,13,38.4l-1.306,1.3c-.107-.058-.215-.112-.318-.165-.149-.074-.289-.145-.409-.219a14.2,14.2,0,0,1-3.4-3.1,8.375,8.375,0,0,1-1.116-1.761c.339-.31.653-.632.959-.942.116-.116.231-.236.347-.351a1.9,1.9,0,0,0,0-2.86L6.623,29.175c-.128-.128-.26-.26-.384-.393-.248-.256-.508-.521-.777-.769a1.957,1.957,0,0,0-1.385-.608,2.025,2.025,0,0,0-1.405.608l-.008.008L1.258,29.44a3.024,3.024,0,0,0-.9,1.922,7.246,7.246,0,0,0,.529,3.067A17.8,17.8,0,0,0,4.053,39.7a19.451,19.451,0,0,0,6.477,5.072,10.092,10.092,0,0,0,3.637,1.075c.087,0,.178.008.26.008a3.115,3.115,0,0,0,2.385-1.025c0-.008.012-.012.017-.021a9.4,9.4,0,0,1,.723-.748c.178-.169.36-.347.537-.533a2.062,2.062,0,0,0,.624-1.43,1.986,1.986,0,0,0-.637-1.418Zm1.48,4.352s0,0,0,0c-.161.174-.327.331-.5.5a10.867,10.867,0,0,0-.8.827,1.993,1.993,0,0,1-1.554.657c-.062,0-.128,0-.19,0a8.965,8.965,0,0,1-3.224-.967A18.361,18.361,0,0,1,4.916,39,16.78,16.78,0,0,1,1.94,34.04a5.9,5.9,0,0,1-.463-2.587,1.9,1.9,0,0,1,.57-1.228l1.409-1.409a.94.94,0,0,1,.628-.293.884.884,0,0,1,.6.289l.012.012c.252.236.492.479.744.74.128.132.26.265.393.4l1.128,1.128a.789.789,0,0,1,0,1.281c-.12.12-.236.24-.355.355-.347.355-.678.686-1.037,1.009-.008.008-.017.012-.021.021a.843.843,0,0,0-.215.938l.012.037a9.059,9.059,0,0,0,1.335,2.178l0,0a15.171,15.171,0,0,0,3.67,3.34,5.645,5.645,0,0,0,.508.277c.149.074.289.145.409.219.017.008.033.021.05.029a.9.9,0,0,0,.409.1.884.884,0,0,0,.628-.285l1.414-1.414a.935.935,0,0,1,.624-.31.842.842,0,0,1,.6.3l.008.008,2.277,2.277A.817.817,0,0,1,17.287,42.757Z" transform="translate(-0.344 -26.273)" fill="currentColor"/>
  <path id="Path_897" data-name="Path 897" d="M245.4,87.032a5.32,5.32,0,0,1,4.332,4.332.555.555,0,0,0,.55.463.738.738,0,0,0,.1-.008.559.559,0,0,0,.459-.645,6.432,6.432,0,0,0-5.241-5.241.561.561,0,0,0-.645.455A.552.552,0,0,0,245.4,87.032Z" transform="translate(-234.834 -82.374)" fill="currentColor"/>
  <path id="Path_898" data-name="Path 898" d="M258.054,8.639a10.591,10.591,0,0,0-8.63-8.63.557.557,0,1,0-.182,1.1,9.46,9.46,0,0,1,7.713,7.713.555.555,0,0,0,.55.463.738.738,0,0,0,.1-.008A.548.548,0,0,0,258.054,8.639Z" transform="translate(-238.507 0)" fill="currentColor"/>
</svg>
