<svg xmlns="http://www.w3.org/2000/svg" width="71.609" height="49.574" viewBox="0 0 71.609 49.574">
  <g id="Group_399" data-name="Group 399" transform="translate(-20.602 -35.588)">
    <g id="Group_398" data-name="Group 398" transform="translate(20.602 35.588)">
      <g id="Group_396" data-name="Group 396" transform="translate(10.147 26.124)">
        <g id="Group_392" data-name="Group 392">
          <path id="Path_99" data-name="Path 99" d="M44.531,85.5c-.954,1.138-3.353,3.261-5.869,1.1-2.786-2.4.369-6.168,1.923-7.032Z" transform="translate(-36.447 -78.462)" fill="#ea5160"/>
          <path id="Path_100" data-name="Path 100" d="M40.543,88.244a4.534,4.534,0,0,1-3-1.2,4.037,4.037,0,0,1-1.47-3.587,7.772,7.772,0,0,1,3.577-5.248,1.105,1.105,0,0,1,1.458.354L45.057,84.5a1.105,1.105,0,0,1-.074,1.322,6.367,6.367,0,0,1-4.093,2.411C40.773,88.239,40.658,88.244,40.543,88.244Zm-.618-7.475a5.275,5.275,0,0,0-1.649,2.91,1.841,1.841,0,0,0,.712,1.688,2.305,2.305,0,0,0,1.722.659,3.648,3.648,0,0,0,2.016-1.042Z" transform="translate(-36.053 -78.067)" fill="#0e324b"/>
        </g>
        <g id="Group_393" data-name="Group 393" transform="translate(3.861 3.302)">
          <path id="Path_101" data-name="Path 101" d="M44.112,94h0a3.057,3.057,0,0,1-.6-4.471L47.1,85.261a3.418,3.418,0,0,1,4.8-.42h0a3.417,3.417,0,0,1,.419,4.8l-3.584,4.272C47.531,95.35,45.548,95.209,44.112,94Z" transform="translate(-41.686 -82.943)" fill="#ea5160"/>
          <path id="Path_102" data-name="Path 102" d="M46.14,95.661h-.032a4.93,4.93,0,0,1-3.1-1.2h0a4.663,4.663,0,0,1-1.671-2.829,3.994,3.994,0,0,1,.937-3.2l3.585-4.272a4.513,4.513,0,0,1,6.915,5.8L49.189,94.23A3.923,3.923,0,0,1,46.14,95.661Zm3.183-10.9c-.069,0-.138,0-.207.009a2.288,2.288,0,0,0-1.564.809l-3.584,4.272a1.768,1.768,0,0,0-.446,1.445,2.469,2.469,0,0,0,.906,1.468h0a2.728,2.728,0,0,0,1.7.687h.015a1.7,1.7,0,0,0,1.354-.64l3.585-4.272a2.3,2.3,0,0,0-1.756-3.779Z" transform="translate(-41.292 -82.548)" fill="#0e324b"/>
        </g>
        <g id="Group_394" data-name="Group 394" transform="translate(9.082 7.684)">
          <path id="Path_103" data-name="Path 103" d="M51.2,99.948h0a3.057,3.057,0,0,1-.6-4.471l3.584-4.272a3.419,3.419,0,0,1,4.8-.42h0a3.419,3.419,0,0,1,.42,4.8L55.82,99.858C54.615,101.294,52.632,101.153,51.2,99.948Z" transform="translate(-48.77 -88.888)" fill="#ea5160"/>
          <path id="Path_104" data-name="Path 104" d="M53.224,101.605h-.032a4.932,4.932,0,0,1-3.1-1.2,4.666,4.666,0,0,1-1.67-2.827,3.994,3.994,0,0,1,.937-3.2L52.942,90.1a4.513,4.513,0,1,1,6.915,5.8l-3.585,4.272A3.923,3.923,0,0,1,53.224,101.605ZM56.4,90.7a2.3,2.3,0,0,0-1.766.822l-3.584,4.271a1.768,1.768,0,0,0-.446,1.445,2.473,2.473,0,0,0,.906,1.469h0a2.726,2.726,0,0,0,1.7.685,1.773,1.773,0,0,0,1.369-.64l3.586-4.272A2.3,2.3,0,0,0,56.4,90.7Z" transform="translate(-48.376 -88.494)" fill="#0e324b"/>
        </g>
        <g id="Group_395" data-name="Group 395" transform="translate(15.45 13.207)">
          <path id="Path_105" data-name="Path 105" d="M59.692,104.612h0c-1.22-1.024-1.624-2.487-.6-3.706L60.9,98.515a2.905,2.905,0,0,1,4.08-.357h0a2.9,2.9,0,0,1,.357,4.079L64.3,103.612A3.806,3.806,0,0,1,59.692,104.612Z" transform="translate(-57.408 -96.381)" fill="#ea5160"/>
          <path id="Path_106" data-name="Path 106" d="M60.947,105.709a4.839,4.839,0,0,1-2.136-.5,1.12,1.12,0,0,1-.223-.146c-1.78-1.495-2.082-3.658-.736-5.264l1.771-2.347a4,4,0,1,1,6.166,5.1l-1,1.33A5.01,5.01,0,0,1,60.947,105.709Zm-1.039-2.425a2.724,2.724,0,0,0,3.148-.776l1-1.33a1.792,1.792,0,1,0-2.708-2.345l-1.771,2.346A1.443,1.443,0,0,0,59.908,103.284Z" transform="translate(-57.015 -95.988)" fill="#0e324b"/>
        </g>
      </g>
      <path id="Path_107" data-name="Path 107" d="M60.287,93.2a8.109,8.109,0,0,1-4-1.068,1.106,1.106,0,0,1-.343-1.632l1.778-2.353A1.792,1.792,0,1,0,55.016,85.8l-1.38,1.829a1.109,1.109,0,0,1-.842.439,1.087,1.087,0,0,1-.87-.376l-.086-.1a1.106,1.106,0,0,1-.024-1.449L54.1,83.421a2.3,2.3,0,0,0-3.528-2.96,1.105,1.105,0,1,1-1.694-1.421,2.3,2.3,0,1,0-3.527-2.961L44.162,77.5a1.105,1.105,0,0,1-.847.4h0a1.106,1.106,0,0,1-.848-.4c-.025-.03-.059-.074-.081-.108l-3.827-5.756a1.037,1.037,0,0,1-.147-.189,14.63,14.63,0,0,0-4.97-5.177,1.106,1.106,0,0,1-.367-1.488l8.675-15.024a1.1,1.1,0,0,1,.5-.453,34.182,34.182,0,0,1,12.374-2.865A11.118,11.118,0,0,1,60.6,48.306a1.11,1.11,0,0,1,.424.621l.126.49a1.105,1.105,0,0,1-.5,1.223c-3.339,2.009-6.526,5.029-7.408,6.59a13.113,13.113,0,0,0-1.428,6.728v.133c0,1.245,0,2.949.806,3.282.909.378,2.613-1.569,3.431-2.5,3.222-3.679,5.691-6.026,5.794-6.125a1.107,1.107,0,0,1,1.47-.045L81.293,73.748a4.38,4.38,0,0,1,1.625,3.27,5.253,5.253,0,0,1-1.554,3.916A5.18,5.18,0,0,1,77.8,82.413h-.043a4.124,4.124,0,0,1-.78,2.276,5.4,5.4,0,0,1-4.925,1.8,4.222,4.222,0,0,1-1.5,2.839,5.354,5.354,0,0,1-4.274,1.088,5.063,5.063,0,0,1-2.173,1.88A8.816,8.816,0,0,1,60.287,93.2Zm-1.732-2.484a6.231,6.231,0,0,0,4.585-.41,3.672,3.672,0,0,0,1.035-.724L62.4,88.271a1.105,1.105,0,0,1,.855-1.976c.23.041.543.1,2.448,1.659a3.279,3.279,0,0,0,3.481-.367,2.236,2.236,0,0,0,.649-1.991L64.6,81.835a1.106,1.106,0,0,1,1.291-1.8l5.47,3.933a3.4,3.4,0,0,0,3.795-.545,1.746,1.746,0,0,0,.363-1.293.931.931,0,0,0-.282-.493c-.118-.078-.233-.164-.346-.254l-7.4-5.708a1.105,1.105,0,0,1,1.35-1.75l7.37,5.682a3.765,3.765,0,0,1,.345.247,2.721,2.721,0,0,0,3.277-.523,3.025,3.025,0,0,0,.873-2.225,2.155,2.155,0,0,0-.821-1.654L62.665,61.037c-.956.95-2.8,2.829-4.95,5.289-1.419,1.621-3.566,4.072-5.938,3.09-2.173-.9-2.173-3.562-2.173-5.326v-.131a15.288,15.288,0,0,1,1.714-7.818C52.243,54.5,55,51.73,58.286,49.524a8.68,8.68,0,0,0-3.664-.879,32.009,32.009,0,0,0-11.142,2.529L35.505,64.988a16.869,16.869,0,0,1,4.682,5.124,1.049,1.049,0,0,1,.1.13l3.129,4.7.241-.287a4.511,4.511,0,0,1,7.968,2.826,4.511,4.511,0,0,1,5.105,5.484,3.958,3.958,0,0,1,2.229.916,4.007,4.007,0,0,1,.494,5.637Z" transform="translate(-25.083 -43.624)" fill="#0e324b"/>
      <g id="Group_397" data-name="Group 397" transform="translate(24.521 2.81)">
        <path id="Path_108" data-name="Path 108" d="M94.088,65.724,85.414,50.7s-7.166-2.766-12.323-2.766c-4.87,0-12.849,6.286-14.466,9.147a14.36,14.36,0,0,0-1.571,7.4c0,1.605,0,3.689,1.489,4.3,1.537.635,3.2-1.1,4.685-2.8,3.226-3.684,5.723-6.051,5.723-6.051l17.976,15.05c.012.009.018.021.03.031C90.5,71.248,90.365,67.013,94.088,65.724Z" transform="translate(-55.949 -46.828)" fill="#ea5160"/>
        <path id="Path_109" data-name="Path 109" d="M86.563,75.733a1.1,1.1,0,0,1-.7-.248c-.027-.023-.057-.051-.086-.08L68.616,61.037c-.956.95-2.8,2.829-4.95,5.289-1.419,1.621-3.566,4.072-5.938,3.09-2.173-.9-2.173-3.562-2.173-5.326v-.131a15.288,15.288,0,0,1,1.714-7.818c1.806-3.2,10.088-9.707,15.428-9.707,5.3,0,12.42,2.724,12.721,2.84a1.1,1.1,0,0,1,.559.479l8.675,15.024a1.105,1.105,0,0,1-.6,1.6c-1.723.6-2.431,2.012-3.411,3.97a19.718,19.718,0,0,1-3.275,5.041A1.107,1.107,0,0,1,86.563,75.733Zm-18-17.292a1.1,1.1,0,0,1,.709.258L86.442,73.077a20.281,20.281,0,0,0,2.226-3.725c.89-1.778,1.739-3.476,3.467-4.513L84.261,51.2c-1.493-.544-7.315-2.558-11.564-2.558-4.309,0-11.979,5.886-13.5,8.585a13.113,13.113,0,0,0-1.428,6.728v.133c0,1.245,0,2.949.806,3.282.909.378,2.613-1.569,3.431-2.5,3.222-3.679,5.691-6.026,5.794-6.125A1.107,1.107,0,0,1,68.559,58.441Z" transform="translate(-55.555 -46.434)" fill="#0e324b"/>
      </g>
      <path id="Path_110" data-name="Path 110" d="M29.08,66.67a3.562,3.562,0,0,1-1.786-.479h0l-3.219-1.859a3.591,3.591,0,0,1-1.311-4.9l8.674-15.025a3.592,3.592,0,0,1,4.9-1.312l3.219,1.859a3.589,3.589,0,0,1,1.312,4.9L32.19,64.879A3.585,3.585,0,0,1,29.08,66.67Zm-.68-2.394a1.374,1.374,0,0,0,1.876-.5L38.95,48.75a1.374,1.374,0,0,0-.5-1.876l-3.219-1.859a1.381,1.381,0,0,0-1.876.5L24.679,60.543a1.374,1.374,0,0,0,.5,1.875Z" transform="translate(-22.284 -42.621)" fill="#0e324b"/>
      <path id="Path_111" data-name="Path 111" d="M105.847,66.671a3.585,3.585,0,0,1-3.109-1.792L94.064,49.855a3.588,3.588,0,0,1,1.311-4.9l3.22-1.859a3.592,3.592,0,0,1,4.9,1.313l8.674,15.025a3.589,3.589,0,0,1-1.312,4.9l-3.219,1.859A3.564,3.564,0,0,1,105.847,66.671ZM100.38,44.833a1.354,1.354,0,0,0-.68.182l-3.22,1.859a1.375,1.375,0,0,0-.5,1.876l8.675,15.024a1.381,1.381,0,0,0,1.876.5h0l3.219-1.859a1.381,1.381,0,0,0,.5-1.875l-8.675-15.025a1.36,1.36,0,0,0-.835-.637A1.378,1.378,0,0,0,100.38,44.833Z" transform="translate(-41.036 -42.621)" fill="#0e324b"/>
    </g>
  </g>
</svg>
